3 Working with tables | Introduction to R
…
For calculating new or existing rows we use mutate(), as mentiobed before. If we only use mutate(), R shows us the data frame with the new calculations on the console, but does not overwrite it. We need to assing the result to the data frame to overwrite the result.

For intance, the weight is given in 1000 lbs. Let’s change the units.

First, we can have a look at the first rows of this column with the function select().

df_mtcars %>% 
  select(wt)

## # A tibble: 32 x 1
##       wt
##    <dbl>
##  1  2.62
##  2  2.88
##  3  2.32
##  4  3.22
##  5  3.44
##  6  3.46
##  7  3.57
##  8  3.19
##  9  3.15
## 10  3.44
## # … with 22 more rows

Now let’s make the calculation.

df_mtcars %>% 
  mutate(wt = wt * 1000)

## # A tibble: 32 x 11
##      mpg   cyl  disp    hp  drat    wt  qsec    vs    am  gear  carb
##    <dbl> <dbl> <dbl> <dbl> <dbl> <dbl> <dbl> <dbl> <dbl> <dbl> <dbl>
##  1  21       6  160    110  3.9   2620  16.5     0     1     4     4
##  2  21       6  160    110  3.9   2875  17.0     0     1     4     4
##  3  22.8     4  108     93  3.85  2320  18.6     1     1     4     1
##  4  21.4     6  258    110  3.08  3215  19.4     1     0     3     1
##  5  18.7     8  360    175  3.15  3440  17.0     0     0     3     2
##  6  18.1     6  225    105  2.76  3460  20.2     1     0     3     1
##  7  14.3     8  360    245  3.21  3570  15.8     0     0     3     4
##  8  24.4     4  147.    62  3.69  3190  20       1     0     4     2
##  9  22.8     4  141.    95  3.92  3150  22.9     1     0     4     2
## 10  19.2     6  168.   123  3.92  3440  18.3     1     0     4     4
## # … with 22 more rows

If there are too many columns is uncomfortable seeing the results. We can use select() and make the pipeline longer.

df_mtcars %>% 
  mutate(wt = wt * 1000) %>% 
  select(wt)

## # A tibble: 32 x 1
##       wt
##    <dbl>
##  1  2620
##  2  2875
##  3  2320
##  4  3215
##  5  3440
##  6  3460
##  7  3570
##  8  3190
##  9  3150
## 10  3440
## # … with 22 more rows

The calculation seems correct. Now, instead of showing the result on the console, we overwrite the result (we don’t use select() now because we want the entire tibble).

df_mtcars <- df_mtcars %>% 
  mutate(wt = wt * 1000)

We don’t see anything on the screen but R has changed the column wt. Had we made a mistake and wanted to go back, we would have to execute again the reading of the file or make the opposite calculation.

df_mtcars %>% 
  mutate(wt = wt / 1000) %>% 
  select(wt)

## # A tibble: 32 x 1
##       wt
##    <dbl>
##  1  2.62
##  2  2.88
##  3  2.32
##  4  3.22
##  5  3.44
##  6  3.46
##  7  3.57
##  8  3.19
##  9  3.15
## 10  3.44
## # … with 22 more rows
…
Remark. Remember to assign the result to the tibble with <- if you want to keep the results. Don’t forget to erase select() in this case.

This change on the column may not seem very useful. It can be more interesting changing the numbers with the real meaning: V-shaped and straight. For this, we need the column to be a character, but it is numeric.

class(df_mtcars$vs)

## [1] "numeric"

We want to assign these meaning to the numbers and, therefore, the column will be a character, but R will take care of this for us. For changing the values, we use if_else(). We want to say: ‘if vs equals 0, then it will equal “V-shaped”, else “straight”’. We can create and auxiliar column vs_aux for making the change more clear.

df_mtcars %>% 
  mutate(vs_aux = if_else(vs == 0, "V-shaped", "straight")) %>% 
  select(vs, vs_aux)

## # A tibble: 32 x 2
##       vs vs_aux  
##    <dbl> <chr>   
##  1     0 V-shaped
##  2     0 V-shaped
##  3     1 straight
##  4     1 straight
##  5     0 V-shaped
##  6     1 straight
##  7     0 V-shaped
##  8     1 straight
##  9     1 straight
## 10     1 straight
## # … with 22 more rows
…
class(as.integer(4, 6, 1))

## [1] "integer"

df_mtcars %>% 
  mutate(
    cyl = as.integer(cyl), 
    vs = as.integer(vs), 
    am = as.integer(am), 
    gear = as.integer(gear), 
    carb = as.integer(carb)
  )

## # A tibble: 32 x 11
##      mpg   cyl  disp    hp  drat    wt  qsec    vs    am  gear  carb
##    <dbl> <int> <dbl> <dbl> <dbl> <dbl> <dbl> <int> <int> <int> <int>
##  1  21       6  160    110  3.9   2620  16.5     0     1     4     4
##  2  21       6  160    110  3.9   2875  17.0     0     1     4     4
##  3  22.8     4  108     93  3.85  2320  18.6     1     1     4     1
##  4  21.4     6  258    110  3.08  3215  19.4     1     0     3     1
##  5  18.7     8  360    175  3.15  3440  17.0     0     0     3     2
##  6  18.1     6  225    105  2.76  3460  20.2     1     0     3     1
##  7  14.3     8  360    245  3.21  3570  15.8     0     0     3     4
##  8  24.4     4  147.    62  3.69  3190  20       1     0     4     2
##  9  22.8     4  141.    95  3.92  3150  22.9     1     0     4     2
## 10  19.2     6  168.   123  3.92  3440  18.3     1     0     4     4
## # … with 22 more rows
…
Yes, there are some NA things. We’ll talk about than in a few minutes.

Working with vector is efficient but the sintax is verbose. dplyr provide us with a different sintax, data frame - orientated (remember that when doing statistics, data will be mainly stored in tables, therefore we love data frames and working with them <3).

Let’s see how to do this with data frames.

starwars %>% 
  filter(height > 175)

## # A tibble: 48 x 14
##    name  height  mass hair_color skin_color eye_color birth_year sex   gender
##    <chr>  <int> <dbl> <chr>      <chr>      <chr>          <dbl> <chr> <chr> 
##  1 Dart…    202 136   none       white      yellow          41.9 male  mascu…
##  2 Owen…    178 120   brown, gr… light      blue            52   male  mascu…
##  3 Bigg…    183  84   black      light      brown           24   male  mascu…
##  4 Obi-…    182  77   auburn, w… fair       blue-gray       57   male  mascu…
##  5 Anak…    188  84   blond      fair       blue            41.9 male  mascu…
##  6 Wilh…    180  NA   auburn, g… fair       blue            64   male  mascu…
##  7 Chew…    228 112   brown      unknown    blue           200   male  mascu…
##  8 Han …    180  80   brown      fair       brown           29   male  mascu…
##  9 Jek …    180 110   brown      fair       blue            NA   male  mascu…
## 10 Boba…    183  78.2 black      fair       brown           31.5 male  mascu…
## # … with 38 more rows, and 5 more variables: homeworld <chr>, species <chr>,
## #   films <list>, vehicles <list>, starships <list>

Doing this we keep all the information about the characters: we have only removed the rows about characters we’re not interested on because of their height.

We can also extend the pipeline and also select only the column of names.

starwars %>% 
  filter(height > 175) %>% 
  select(name)

## # A tibble: 48 x 1
##    name             
##    <chr>            
##  1 Darth Vader      
##  2 Owen Lars        
##  3 Biggs Darklighter
##  4 Obi-Wan Kenobi   
##  5 Anakin Skywalker 
##  6 Wilhuff Tarkin   
##  7 Chewbacca        
##  8 Han Solo         
##  9 Jek Tono Porkins 
## 10 Boba Fett        
## # … with 38 more rows
…
We can do the same with several columns at the same time:

starwars %>% 
  distinct(hair_color, skin_color)

## # A tibble: 50 x 2
##    hair_color    skin_color 
##    <chr>         <chr>      
##  1 blond         fair       
##  2 <NA>          gold       
##  3 <NA>          white, blue
##  4 none          white      
##  5 brown         light      
##  6 brown, grey   light      
##  7 <NA>          white, red 
##  8 black         light      
##  9 auburn, white fair       
## 10 auburn, grey  fair       
## # … with 40 more rows
…
The contrary:

starwars %>% 
  filter(!is.na(height))

## # A tibble: 81 x 14
##    name  height  mass hair_color skin_color eye_color birth_year sex   gender
##    <chr>  <int> <dbl> <chr>      <chr>      <chr>          <dbl> <chr> <chr> 
##  1 Luke…    172    77 blond      fair       blue            19   male  mascu…
##  2 C-3PO    167    75 <NA>       gold       yellow         112   none  mascu…
##  3 R2-D2     96    32 <NA>       white, bl… red             33   none  mascu…
##  4 Dart…    202   136 none       white      yellow          41.9 male  mascu…
##  5 Leia…    150    49 brown      light      brown           19   fema… femin…
##  6 Owen…    178   120 brown, gr… light      blue            52   male  mascu…
##  7 Beru…    165    75 brown      light      blue            47   fema… femin…
##  8 R5-D4     97    32 <NA>       white, red red             NA   none  mascu…
##  9 Bigg…    183    84 black      light      brown           24   male  mascu…
## 10 Obi-…    182    77 auburn, w… fair       blue-gray       57   male  mascu…
## # … with 71 more rows, and 5 more variables: homeworld <chr>, species <chr>,
## #   films <list>, vehicles <list>, starships <list>
…
This is useful for making sure that you have all the information you need for an analysis. Suppose you are asked to calculate the BMI (explained during the second session). You need both the height and the mass, so you should check both columns are available.

Exercise. Keep only the rows with both height and mass available and create a new column with the BMI (\(m / h^2\)). Finally select the name of the character and the new column.

starwars %>% 
  filter(!is.na(height), !is.na(mass)) %>% 
  mutate(mass / (height ^ 2))

## # A tibble: 59 x 15
##    name  height  mass hair_color skin_color eye_color birth_year sex   gender
##    <chr>  <int> <dbl> <chr>      <chr>      <chr>          <dbl> <chr> <chr> 
##  1 Luke…    172    77 blond      fair       blue            19   male  mascu…
##  2 C-3PO    167    75 <NA>       gold       yellow         112   none  mascu…
##  3 R2-D2     96    32 <NA>       white, bl… red             33   none  mascu…
##  4 Dart…    202   136 none       white      yellow          41.9 male  mascu…
##  5 Leia…    150    49 brown      light      brown           19   fema… femin…
##  6 Owen…    178   120 brown, gr… light      blue            52   male  mascu…
##  7 Beru…    165    75 brown      light      blue            47   fema… femin…
##  8 R5-D4     97    32 <NA>       white, red red             NA   none  mascu…
##  9 Bigg…    183    84 black      light      brown           24   male  mascu…
## 10 Obi-…    182    77 auburn, w… fair       blue-gray       57   male  mascu…
## # … with 49 more rows, and 6 more variables: homeworld <chr>, species <chr>,
## #   films <list>, vehicles <list>, starships <list>, `mass/(height^2)` <dbl>
…
# Exercise 4
sum(is.na(df_merca$fecha_desde))

## [1] 5

# Exercise 5
df_merca <- df_merca %>% 
  filter(!is.na(fecha_desde))

# Exercise 6
df_merca %>% 
  filter(desc_variedad_2 == "VACUNO") %>% 
  distinct(desc_origen)

## # A tibble: 59 x 1
##    desc_origen
##    <chr>      
##  1 BADAJOZ    
##  2 BARCELONA  
##  3 CACERES    
##  4 CUENCA     
##  5 LUGO       
##  6 MADRID     
##  7 NAVARRA    
##  8 ORENSE     
##  9 PONTEVEDRA 
## 10 SALAMANCA  
## # … with 49 more rows
…
We are now working with an example from the official dplyr documentation, available on the tidyverse site. This notes are just a summary of that page, consisting mainly in copy-pasted paragraphs. The original website may be too technical for our purposes.

The data will used is a dataset containing all 336776 flights that departed from New York City in 2013. The data comes from the US Bureau of Transportation Statistics, it is available in the nycflights13 package and is documented in ? nycflights13.

library(dplyr)
library(nycflights13)

dim(flights)

## [1] 336776     19

flights

## # A tibble: 336,776 x 19
##     year month   day dep_time sched_dep_time dep_delay arr_time sched_arr_time
##    <int> <int> <int>    <int>          <int>     <dbl>    <int>          <int>
##  1  2013     1     1      517            515         2      830            819
##  2  2013     1     1      533            529         4      850            830
##  3  2013     1     1      542            540         2      923            850
##  4  2013     1     1      544            545        -1     1004           1022
##  5  2013     1     1      554            600        -6      812            837
##  6  2013     1     1      554            558        -4      740            728
##  7  2013     1     1      555            600        -5      913            854
##  8  2013     1     1      557            600        -3      709            723
##  9  2013     1     1      557            600        -3      838            846
## 10  2013     1     1      558            600        -2      753            745
## # … with 336,766 more rows, and 11 more variables: arr_delay <dbl>,
## #   carrier <chr>, flight <int>, tailnum <chr>, origin <chr>, dest <chr>,
## #   air_time <dbl>, distance <dbl>, hour <dbl>, minute <dbl>, time_hour <dttm>
…
select() and rename() to select variables based on their names.

mutate() and transmute() to add new variables that are functions of existing variables.

summarise() to condense multiple values to a single value.

sample_n() and sample_frac() to take random samples.

3.10.1 Filter rows with filter()

filter() allows you to select a subset of rows in a data frame. Firstly, the function receives a tibble (we are doing during the sessions via the %>% command but it is not necessary). Then we also have to write inside the brackets the expression used for rows selection. This expression will be TRUE for the selected rows.

Exercise 1. Select all flights on January 1st.

## # A tibble: 842 x 19
##     year month   day dep_time sched_dep_time dep_delay arr_time sched_arr_time
##    <int> <int> <int>    <int>          <int>     <dbl>    <int>          <int>
##  1  2013     1     1      517            515         2      830            819
##  2  2013     1     1      533            529         4      850            830
##  3  2013     1     1      542            540         2      923            850
##  4  2013     1     1      544            545        -1     1004           1022
##  5  2013     1     1      554            600        -6      812            837
##  6  2013     1     1      554            558        -4      740            728
##  7  2013     1     1      555            600        -5      913            854
##  8  2013     1     1      557            600        -3      709            723
##  9  2013     1     1      557            600        -3      838            846
## 10  2013     1     1      558            600        -2      753            745
## # … with 832 more rows, and 11 more variables: arr_delay <dbl>, carrier <chr>,
## #   flight <int>, tailnum <chr>, origin <chr>, dest <chr>, air_time <dbl>,
## #   distance <dbl>, hour <dbl>, minute <dbl>, time_hour <dttm>

Exercise 2. How many flights departed from JFK airport?

## [1] 111279

Exercise 3. How many delayed flights were there?

## [1] 133004

Exercise 4. Select the flights with no NA data on the dep_delay column.

## # A tibble: 328,521 x 19
##     year month   day dep_time sched_dep_time dep_delay arr_time sched_arr_time
##    <int> <int> <int>    <int>          <int>     <dbl>    <int>          <int>
##  1  2013     1     1      517            515         2      830            819
##  2  2013     1     1      533            529         4      850            830
##  3  2013     1     1      542            540         2      923            850
##  4  2013     1     1      544            545        -1     1004           1022
##  5  2013     1     1      554            600        -6      812            837
##  6  2013     1     1      554            558        -4      740            728
##  7  2013     1     1      555            600        -5      913            854
##  8  2013     1     1      557            600        -3      709            723
##  9  2013     1     1      557            600        -3      838            846
## 10  2013     1     1      558            600        -2      753            745
## # … with 328,511 more rows, and 11 more variables: arr_delay <dbl>,
## #   carrier <chr>, flight <int>, tailnum <chr>, origin <chr>, dest <chr>,
## #   air_time <dbl>, distance <dbl>, hour <dbl>, minute <dbl>, time_hour <dttm>

3.10.2 Arrange rows with arrange()

arrange() reorders the rows. It takes a data frame, and a set of column names to order by. If you provide more than one column name, each additional column will be used to break ties in the values of preceding columns.

flights %>% arrange(year, month, day)

## # A tibble: 336,776 x 19
##     year month   day dep_time sched_dep_time dep_delay arr_time sched_arr_time
##    <int> <int> <int>    <int>          <int>     <dbl>    <int>          <int>
##  1  2013     1     1      517            515         2      830            819
##  2  2013     1     1      533            529         4      850            830
##  3  2013     1     1      542            540         2      923            850
##  4  2013     1     1      544            545        -1     1004           1022
##  5  2013     1     1      554            600        -6      812            837
##  6  2013     1     1      554            558        -4      740            728
##  7  2013     1     1      555            600        -5      913            854
##  8  2013     1     1      557            600        -3      709            723
##  9  2013     1     1      557            600        -3      838            846
## 10  2013     1     1      558            600        -2      753            745
## # … with 336,766 more rows, and 11 more variables: arr_delay <dbl>,
## #   carrier <chr>, flight <int>, tailnum <chr>, origin <chr>, dest <chr>,
## #   air_time <dbl>, distance <dbl>, hour <dbl>, minute <dbl>, time_hour <dttm>

flights %>% arrange(desc(arr_delay))

## # A tibble: 336,776 x 19
##     year month   day dep_time sched_dep_time dep_delay arr_time sched_arr_time
##    <int> <int> <int>    <int>          <int>     <dbl>    <int>          <int>
##  1  2013     1     9      641            900      1301     1242           1530
##  2  2013     6    15     1432           1935      1137     1607           2120
##  3  2013     1    10     1121           1635      1126     1239           1810
##  4  2013     9    20     1139           1845      1014     1457           2210
##  5  2013     7    22      845           1600      1005     1044           1815
##  6  2013     4    10     1100           1900       960     1342           2211
##  7  2013     3    17     2321            810       911      135           1020
##  8  2013     7    22     2257            759       898      121           1026
##  9  2013    12     5      756           1700       896     1058           2020
## 10  2013     5     3     1133           2055       878     1250           2215
## # … with 336,766 more rows, and 11 more variables: arr_delay <dbl>,
## #   carrier <chr>, flight <int>, tailnum <chr>, origin <chr>, dest <chr>,
## #   air_time <dbl>, distance <dbl>, hour <dbl>, minute <dbl>, time_hour <dttm>

3.10.3 Select columns with select()

Often you work with large datasets with many columns but only a few are actually of interest to you. select() allows you to rapidly zoom in on a useful subset, even using operations.

flights %>% select(year, month, day)

## # A tibble: 336,776 x 3
##     year month   day
##    <int> <int> <int>
##  1  2013     1     1
##  2  2013     1     1
##  3  2013     1     1
##  4  2013     1     1
##  5  2013     1     1
##  6  2013     1     1
##  7  2013     1     1
##  8  2013     1     1
##  9  2013     1     1
## 10  2013     1     1
## # … with 336,766 more rows
…
